{
    "KPlugin": {
        "Authors": [
            {
                "Email": "",
                "Name": ""
            }
        ],
        "Category": "",
        "Description": "Application job updates (via kuiserver)",
        "Description[ar]": "تحديثات مهمّة التطبيق (عبر kuiserver)",
        "Description[az]": "Tətbiq Tapşırığı yenilənmələri (kuiserver ilə)",
        "Description[be]": "Абнаўленні задач праграм (з дапамогай kuiserver)",
        "Description[bg]": "Обновяване на задача на приложение (чрез kuiserver)",
        "Description[ca@valencia]": "Actualització de treballs d'aplicacions (via kuiserver)",
        "Description[ca]": "Actualització de treballs d'aplicacions (via kuiserver)",
        "Description[cs]": "Aktualizace úloh aplikací (pomocí kuiserver)",
        "Description[da]": "Jobopdateringer for program (via kuiserver)",
        "Description[de]": "Aktualisierung von Anwendungs-Aktionen (via kuiserver)",
        "Description[eo]": "Apikaĵaj taskoj ĝisdatigitaj (per kuiserver)",
        "Description[es]": "Actualizaciones de la aplicación (vía kuiserver)",
        "Description[et]": "Rakenduse töö uuendused (kuiserver'i kaudu)",
        "Description[eu]": "Aplikazio-lanen eguneratzea (kuiserver bidez)",
        "Description[fi]": "Sovellustyöpäivitykset (kuiserverin kautta)",
        "Description[fr]": "Mises à jours des tâches d'applications (Grâce à « kuiserver »)",
        "Description[gl]": "Actualización de tarefa da aplicación (mediante kuiserver).",
        "Description[he]": "עדכוני משימות יישום (דרך kuiserver)",
        "Description[hi]": "अनुप्रयोग कार्य अध्यतन (केयूआइसरवर के माध्यम से)",
        "Description[hu]": "Feladatfrissítő (a kuiserveren keresztül)",
        "Description[ia]": "Actualisationes de travalio de application (via kuiserver)",
        "Description[id]": "Pembaruan tugas aplikasi (via kuiserver)",
        "Description[is]": "Uppfærslutilkynningar um forritaverk (með kuiserver)",
        "Description[it]": "Aggiornamenti sui processi delle applicazioni (con kuiserver)",
        "Description[ja]": "アプリケーションジョブ更新 (kuiserver 経由)",
        "Description[ka]": "აპლიკაციის დავალების განახლებები (kuiserver-ით)",
        "Description[ko]": "앱 작업 업데이트 (kuiserver를 통하여)",
        "Description[lt]": "Programų darbų atnaujinimai (per kuiserver)",
        "Description[lv]": "Programmas darba atjauninājumi (izmantojot „kuiserver“)",
        "Description[nl]": "Applicatiejob bijwerken (via kuiserver)",
        "Description[nn]": "Oppdateringar for programjobbar (gjennom kuiserver)",
        "Description[pa]": "ਐਪਲੀਕੇਸ਼ਨ ਜਾਬ ਅੱਪਡੇਟ (kuiserver ਰਾਹੀਂ)",
        "Description[pl]": "Wyświetla uaktualnienia zadania programu (przez kuiserver)",
        "Description[pt]": "Actualizações das tarefas da aplicação (através do 'kuiserver')",
        "Description[pt_BR]": "Atualizações de tarefas de aplicativos (via kuiserver)",
        "Description[ro]": "Actualizări pentru sarcina aplicației (via kuiserver)",
        "Description[ru]": "Обновления о заданиях в приложениях (данные от kuiserver)",
        "Description[sa]": "अनुप्रयोगस्य कार्यस्य अद्यतनीकरणं (kuiserver मार्गेण)",
        "Description[sk]": "Aktualizácie úloh aplikácií (pomocou kuiserver)",
        "Description[sl]": "Osvežitve poslov (prek programa kuiserver)",
        "Description[sv]": "Uppdateringar av information om programjobb (via kuiserver)",
        "Description[ta]": "செயலி பணி தகவல்கள் (kuiserver மூலம்)",
        "Description[tr]": "Uygulama görevi güncellemeleri (kuiserver ile)",
        "Description[uk]": "Оновлення завдань програми (через kuiserver)",
        "Description[vi]": "Các cập nhật về công việc của ứng dụng (thông qua kuiserver)",
        "Description[x-test]": "xxApplication job updates (via kuiserver)xx",
        "Description[zh_CN]": "程序任务更新信息 (通过 kuiserver)",
        "Description[zh_TW]": "應用程式工作更新（透過 kuiserver）",
        "Icon": "tool-animator",
        "Name": "Application Job Information",
        "Name[ar]": "معلومات مهمّة التطبيق",
        "Name[az]": "Tətbiq Tapşırığı Məlumatları",
        "Name[be@latin]": "Źviestki pra zadańnie aplikacyi",
        "Name[be]": "Звесткі пра працу праграмы",
        "Name[bg]": "Информация за задача на приложение",
        "Name[bs]": "Podaci o poslovima programâ",
        "Name[ca@valencia]": "Informació de les tasques de les aplicacions",
        "Name[ca]": "Informació de les tasques de les aplicacions",
        "Name[cs]": "Informace o práci aplikace",
        "Name[csb]": "Wëdowiédzô ò robòce aplikacëjów",
        "Name[da]": "Information om programjob",
        "Name[de]": "Anwendungsaufgaben-Informationen",
        "Name[el]": "Πληροφορίες εργασιών εφαρμογών",
        "Name[eo]": "Aplikaĵaj Taskaj Informoj",
        "Name[es]": "Información de tarea de aplicación",
        "Name[et]": "Rakenduste tööde teave",
        "Name[eu]": "Aplikazioko lanei buruzko informazioa",
        "Name[fi]": "Sovellustyötiedot",
        "Name[fr]": "Informations sur les tâches d'applications en cours d'exécution",
        "Name[fy]": "Programma taak ynformaasje",
        "Name[ga]": "Eolas Faoi Jabanna Feidhmchláir",
        "Name[gl]": "Información de tarefas de aplicación",
        "Name[gu]": "કાર્યક્રમ કાર્ય માહિતી",
        "Name[he]": "מידע על משימה ביישום",
        "Name[hi]": "अनुप्रयोग कार्य जानकारी",
        "Name[hne]": "अनुपरयोग काम सूचना",
        "Name[hr]": "Informacije o poslovima aplikacija",
        "Name[hu]": "Az alkalmazások jellemzői",
        "Name[ia]": "Information de travalio de application",
        "Name[id]": "Informasi Tugas Aplikasi",
        "Name[is]": "Upplýsingar um forritaverk",
        "Name[it]": "Informazioni sui processi delle applicazioni",
        "Name[ja]": "アプリケーションのジョブ情報",
        "Name[ka]": "აპლიკაციის ამოცანის ინფორმაცია",
        "Name[kk]": "Қолданба тапсырмасының ақпараты",
        "Name[km]": "ព័ត៌មាន​ការងារ​របស់​កម្មវិធី",
        "Name[kn]": "ಅನ್ವಯ ಕಾರ್ಯ ಮಾಹಿತಿ",
        "Name[ko]": "앱 작업 정보",
        "Name[ku]": "Agahiyên Karê Sepanê",
        "Name[lt]": "Programos darbo informacija",
        "Name[lv]": "Programmas darba informācija",
        "Name[ml]": "പ്രയോഗ ജോലി അറിയിപ്പുകള്‍",
        "Name[mr]": "अनुप्रयोग कार्यविषयी माहिती",
        "Name[nb]": "Informasjon om programjobb",
        "Name[nds]": "Programm-Opgaavinformatschoon",
        "Name[nl]": "Programmataakmeldingen",
        "Name[nn]": "Informasjon om programjobb",
        "Name[or]": "ପ୍ରୟୋଗ କାର୍ଯ୍ୟ ସୂଚନା",
        "Name[pa]": "ਐਪਲੀਕੇਸ਼ਨ ਜਾਬ ਜਾਣਕਾਰੀ",
        "Name[pl]": "Informacje o zadaniu programu",
        "Name[pt]": "Informação da Tarefa da Aplicação",
        "Name[pt_BR]": "Informações da tarefa do aplicativo",
        "Name[ro]": "Informație despre sarcina aplicației",
        "Name[ru]": "Задания в приложениях",
        "Name[sa]": "अनुप्रयोगः कार्यसूचना",
        "Name[si]": "යෙදුම් කාර්‍යය තොරතුරු",
        "Name[sk]": "Informácie o aplikácii",
        "Name[sl]": "Informacije o poslih",
        "Name[sr@ijekavian]": "подаци о пословима програма̂",
        "Name[sr@ijekavianlatin]": "podaci o poslovima programâ̂",
        "Name[sr@latin]": "podaci o poslovima programâ̂",
        "Name[sr]": "подаци о пословима програма̂",
        "Name[sv]": "Information om programjobb",
        "Name[ta]": "செயலி பணி விவரம்",
        "Name[th]": "ข้อมูลงานของโปรแกรม",
        "Name[tok]": "sona pi pali ilo",
        "Name[tr]": "Uygulama Görev Bilgileri",
        "Name[ug]": "پروگرامما خىزمەت ئۇچۇرى",
        "Name[uk]": "Відомості про завдання програми",
        "Name[vi]": "Thông tin về công việc của ứng dụng",
        "Name[wa]": "Pondants et djondants so les bouyes des programes",
        "Name[x-test]": "xxApplication Job Informationxx",
        "Name[zh_CN]": "程序任务信息",
        "Name[zh_TW]": "應用程式工作資訊",
        "Website": "https://kde.org/plasma-desktop"
    }
}
